<svg xmlns='http://www.w3.org/2000/svg' width='134' height='138' viewBox='0 0 134 138'>
<style>
/* Gradient Offsets */
	.offset0{
		stop-color:	/00000;
		stop-opacity:	0.5;
	}
	.offset1{
		stop-color:	/00000;
		stop-opacity:	0.2;
	}
	.offset2{
	stop-color:	/00000;
	stop-opacity:	0.173;
	}
	.offset3{
	stop-color:	/00000;
	stop-opacity:	0;
	}
	.offset4{
		stop-color:	/00000;
		stop-opacity:	0.7;
	}
	.offset5{
		stop-color:	/00000;
		stop-opacity:	0.1143;
	}
	.offset6{
		stop-color:	/00000;
		stop-opacity:	0.1106;
	}
</style>
<defs>
<linearGradient id='icon_circle_gradient' gradientUnits='userSpaceOnUse' x1='132.9' y1='-120.7' x2='220.1' y2='-208' gradientTransform='matrix(1 0 0 -1 -122.6001 -110.4722)'>
	<stop offset='0' class='offset0'/>
	<stop offset='0.4329' class='offset1'/>
	<stop offset='0.5008' class='offset2'/>
	<stop offset='0.936' class='offset3'/>
</linearGradient>
<linearGradient id='icon_shape_gradient' gradientUnits='userSpaceOnUse' x1='155.0332' y1='-139.2104' x2='188.2848' y2='-172.462' gradientTransform='matrix(1 0 0 -1 -122.6001 -106.9902)'>
	<stop  offset='0' class='offset4'/>
	<stop  offset='0.7899' class='offset5'/>
	<stop  offset='0.9199' class='offset6'/>
	<stop  offset='1'  class='offset3'/>
</linearGradient>
</defs>
<path class='icon_circle_shadow' d='
	M9.418,59.563l77,78l49.332-50.409L63.418,15.563L51.355,7.847L36.75,5.529l-21,10.625l-9.375,19.25L5.878,46.563L7.5,50.654
	l2.918,5.909L9.418,59.563z'/>
<path class='icon_shape_shadow' d='M72.815,55.383l-15.107,15.28c0,0-22.545-19.489-23.633-22.229
	c-0.727-2.511-1.453-5.021-2.18-7.533c-0.808-2.739,28.296,27.25,28.296,27.25L25.903,36.446c1.333-1.104,2.647-2.208,3.941-3.313
	c1.777-1.448,5.153-1.759,6.043-1.835c2.102-0.19,30.128,32.288,30.128,32.288S42.234,43.793,43.366,42.11
	c1.131-1.683,1.737-2.964,1.818-3.844c0.161-1.453,23.296,23.221,23.296,23.221L41.368,36.503l9.931-5.325L72.815,55.383z'/>
<path class='icon_circle' d='
	M41.459,6.5c19.054,0,34.5,15.446,34.5,34.5s-15.446,34.5-34.5,34.5c-23.163,0-34.5-15.445-34.5-34.5
	C6.959,21.946,22.405,6.5,41.459,6.5z'/>
<path class='icon_shape' d='M52.898,35.618c-0.121,2.478-1.957,5.871-5.508,10.177
	c-3.672,4.498-6.778,6.747-9.32,6.747c-1.573,0-2.906-1.369-3.994-4.109c-0.727-2.511-1.453-5.021-2.18-7.533
	c-0.809-2.738-1.675-4.109-2.602-4.109c-0.202,0-0.909,0.401-2.119,1.199l-1.271-1.543c1.333-1.104,2.647-2.208,3.941-3.313
	c1.777-1.448,3.112-2.209,4.002-2.286c2.102-0.19,3.396,1.164,3.881,4.062c0.524,3.127,0.888,5.072,1.092,5.834
	c0.605,2.594,1.272,3.89,2.001,3.89c0.564,0,1.414-0.842,2.546-2.524c1.131-1.683,1.737-2.964,1.818-3.844
	c0.161-1.453-0.444-2.181-1.818-2.181c-0.646,0-1.313,0.141-1.999,0.417c1.328-4.097,3.863-6.087,7.606-5.974
	C51.75,30.606,53.058,32.302,52.898,35.618z'/>
</svg>
